{"totalCount_str": "22406", 
"pageCount": 23, 
"items": [{"href": "http://public-crest.eveonline.com/types/0/", 
"name": "#System"}, 
{"href": "http://public-crest.eveonline.com/types/2/", 
"name": "Corporation"}, 
{"href": "http://public-crest.eveonline.com/types/3/", 
"name": "Region"}, 
{"href": "http://public-crest.eveonline.com/types/4/", 
"name": "Constellation"}, 
{"href": "http://public-crest.eveonline.com/types/2200/", 
"name": "Crate of Prototype Body Armor Fabric "}], 
"next": {"href": "http://public-crest.eveonline.com/types/?page=2"}, 
"totalCount": 22406, 
"pageCount_str": "23"}